{"busiCode":null,"opId":null,"phone":null,"returnCode":"0","returnMessage":"查询成功","bean":{},"beans":[{"markReport":"","counts":"","warningLevel":"0","handName":"","eventResultDetail":"","deviceName":"智能楼宇-空调","devicetypeId":"","surveyTime":"","warningCategoryId":"c65e7423-1c5a-483a-a1b0-8e79ba668de2","applyTime":"2016-07-05 09:20:32","eventDeviceId":"41ffd7b4-ec9d-4a17-adef-4817feaca854","eventFromSystem":"1","dictValue":"","warningType":"1003185","months":"","devicePositionDescribe":"","centralizedProcessIden":"","updateOrDetail":"","handle":"","eventType":"","buildingName":"生产大楼一层101室","responseOfficerId":"","lists":"null","roleName":"","dictName":"","handleLength":"","staffList":"null","eventProcessStatus":"1","eventTime":"2016-07-05 09:20:32","faultType":"","personType":"","handleOpinion":"","handleTime":"","responseTime":"","applierId":"","eventProgress":"","personTotal":"","eventResultTime":"","eventPhoto":"","eventDescribe":"运行异常告警#0","faultName":"","appPush":"","warningEventId":"3e80ce99-69d5-4e99-ba8a-1828eb1a61e4","deviceNameD":"","liveDescribe":"","datedifferent":"1天:1小时","response":"","eventDetail":"","handleId":""},{"markReport":"","counts":"","warningLevel":"0","handName":"","eventResultDetail":"","deviceName":"智能楼宇-空调","devicetypeId":"","surveyTime":"","warningCategoryId":"c65e7423-1c5a-483a-a1b0-8e79ba668de2","applyTime":"2016-06-30 03:29:23","eventDeviceId":"41ffd7b4-ec9d-4a17-adef-4817feaca854","eventFromSystem":"1","dictValue":"","warningType":"1003185","months":"","devicePositionDescribe":"","centralizedProcessIden":"","updateOrDetail":"","handle":"","eventType":"","buildingName":"生产大楼一层101室","responseOfficerId":"","lists":"null","roleName":"","dictName":"","handleLength":"","staffList":"null","eventProcessStatus":"1","eventTime":"2016-06-30 03:29:23","faultType":"","personType":"","handleOpinion":"","handleTime":"","responseTime":"","applierId":"","eventProgress":"","personTotal":"","eventResultTime":"","eventPhoto":"","eventDescribe":"运行异常告警#0","faultName":"","appPush":"","warningEventId":"bd180523-9593-4dfb-94cd-f05be7f7467b","deviceNameD":"","liveDescribe":"","datedifferent":"6天:7小时","response":"","eventDetail":"","handleId":""},{"markReport":"","counts":"","warningLevel":"0","handName":"","eventResultDetail":"","deviceName":"智能楼宇-空调","devicetypeId":"","surveyTime":"","warningCategoryId":"c65e7423-1c5a-483a-a1b0-8e79ba668de2","applyTime":"2016-06-30 02:37:22","eventDeviceId":"41ffd7b4-ec9d-4a17-adef-4817feaca854","eventFromSystem":"1","dictValue":"","warningType":"1003185","months":"","devicePositionDescribe":"","centralizedProcessIden":"","updateOrDetail":"","handle":"","eventType":"","buildingName":"生产大楼一层101室","responseOfficerId":"","lists":"null","roleName":"","dictName":"","handleLength":"","staffList":"null","eventProcessStatus":"1","eventTime":"2016-06-30 02:37:22","faultType":"","personType":"","handleOpinion":"","handleTime":"","responseTime":"","applierId":"","eventProgress":"","personTotal":"","eventResultTime":"","eventPhoto":"","eventDescribe":"运行异常告警#0","faultName":"","appPush":"","warningEventId":"d3047a0f-b875-4e32-aa18-1b594038a4a3","deviceNameD":"","liveDescribe":"","datedifferent":"6天:8小时","response":"","eventDetail":"","handleId":""},{"markReport":"","counts":"","warningLevel":"0","handName":"","eventResultDetail":"","deviceName":"智能楼宇-空调","devicetypeId":"","surveyTime":"","warningCategoryId":"c65e7423-1c5a-483a-a1b0-8e79ba668de2","applyTime":"2016-06-30 02:37:17","eventDeviceId":"41ffd7b4-ec9d-4a17-adef-4817feaca854","eventFromSystem":"1","dictValue":"","warningType":"1003185","months":"","devicePositionDescribe":"","centralizedProcessIden":"","updateOrDetail":"","handle":"","eventType":"","buildingName":"生产大楼一层101室","responseOfficerId":"","lists":"null","roleName":"","dictName":"","handleLength":"","staffList":"null","eventProcessStatus":"1","eventTime":"2016-06-30 02:37:17","faultType":"","personType":"","handleOpinion":"","handleTime":"","responseTime":"","applierId":"","eventProgress":"","personTotal":"","eventResultTime":"","eventPhoto":"","eventDescribe":"运行异常告警#0","faultName":"","appPush":"","warningEventId":"9bd3deff-48de-4271-892b-d11e1913f1bb","deviceNameD":"","liveDescribe":"","datedifferent":"6天:8小时","response":"","eventDetail":"","handleId":""},{"markReport":"","counts":"","warningLevel":"0","handName":"","eventResultDetail":"","deviceName":"智能楼宇-空调","devicetypeId":"","surveyTime":"","warningCategoryId":"c65e7423-1c5a-483a-a1b0-8e79ba668de2","applyTime":"2016-06-30 02:37:02","eventDeviceId":"41ffd7b4-ec9d-4a17-adef-4817feaca854","eventFromSystem":"1","dictValue":"","warningType":"1003185","months":"","devicePositionDescribe":"","centralizedProcessIden":"","updateOrDetail":"","handle":"","eventType":"","buildingName":"生产大楼一层101室","responseOfficerId":"","lists":"null","roleName":"","dictName":"","handleLength":"","staffList":"null","eventProcessStatus":"1","eventTime":"2016-06-30 02:37:02","faultType":"","personType":"","handleOpinion":"","handleTime":"","responseTime":"","applierId":"","eventProgress":"","personTotal":"","eventResultTime":"","eventPhoto":"","eventDescribe":"运行异常告警#0","faultName":"","appPush":"","warningEventId":"df1d6a5d-11b8-4700-ac99-95430d570617","deviceNameD":"","liveDescribe":"","datedifferent":"6天:8小时","response":"","eventDetail":"","handleId":""},{"markReport":"","counts":"","warningLevel":"0","handName":"","eventResultDetail":"","deviceName":"智能楼宇-空调","devicetypeId":"","surveyTime":"","warningCategoryId":"c65e7423-1c5a-483a-a1b0-8e79ba668de2","applyTime":"2016-06-30 02:36:47","eventDeviceId":"41ffd7b4-ec9d-4a17-adef-4817feaca854","eventFromSystem":"1","dictValue":"","warningType":"1003185","months":"","devicePositionDescribe":"","centralizedProcessIden":"","updateOrDetail":"","handle":"","eventType":"","buildingName":"生产大楼一层101室","responseOfficerId":"","lists":"null","roleName":"","dictName":"","handleLength":"","staffList":"null","eventProcessStatus":"1","eventTime":"2016-06-30 02:36:47","faultType":"","personType":"","handleOpinion":"","handleTime":"","responseTime":"","applierId":"","eventProgress":"","personTotal":"","eventResultTime":"","eventPhoto":"","eventDescribe":"运行异常告警#0","faultName":"","appPush":"","warningEventId":"5b1a2812-918e-43ee-a4fe-c6734ea5490a","deviceNameD":"","liveDescribe":"","datedifferent":"6天:8小时","response":"","eventDetail":"","handleId":""},{"markReport":"","counts":"","warningLevel":"0","handName":"","eventResultDetail":"","deviceName":"智能楼宇-空调","devicetypeId":"","surveyTime":"","warningCategoryId":"c65e7423-1c5a-483a-a1b0-8e79ba668de2","applyTime":"2016-06-30 02:36:32","eventDeviceId":"41ffd7b4-ec9d-4a17-adef-4817feaca854","eventFromSystem":"1","dictValue":"","warningType":"1003185","months":"","devicePositionDescribe":"","centralizedProcessIden":"","updateOrDetail":"","handle":"","eventType":"","buildingName":"生产大楼一层101室","responseOfficerId":"","lists":"null","roleName":"","dictName":"","handleLength":"","staffList":"null","eventProcessStatus":"1","eventTime":"2016-06-30 02:36:32","faultType":"","personType":"","handleOpinion":"","handleTime":"","responseTime":"","applierId":"","eventProgress":"","personTotal":"","eventResultTime":"","eventPhoto":"","eventDescribe":"运行异常告警#0","faultName":"","appPush":"","warningEventId":"e111fe49-25b9-4f37-993f-66ef488a100b","deviceNameD":"","liveDescribe":"","datedifferent":"6天:8小时","response":"","eventDetail":"","handleId":""},{"markReport":"","counts":"","warningLevel":"0","handName":"","eventResultDetail":"","deviceName":"智能楼宇-空调","devicetypeId":"","surveyTime":"","warningCategoryId":"c65e7423-1c5a-483a-a1b0-8e79ba668de2","applyTime":"2016-06-30 02:36:12","eventDeviceId":"41ffd7b4-ec9d-4a17-adef-4817feaca854","eventFromSystem":"1","dictValue":"","warningType":"1003185","months":"","devicePositionDescribe":"","centralizedProcessIden":"","updateOrDetail":"","handle":"","eventType":"","buildingName":"生产大楼一层101室","responseOfficerId":"","lists":"null","roleName":"","dictName":"","handleLength":"","staffList":"null","eventProcessStatus":"1","eventTime":"2016-06-30 02:36:12","faultType":"","personType":"","handleOpinion":"","handleTime":"","responseTime":"","applierId":"","eventProgress":"","personTotal":"","eventResultTime":"","eventPhoto":"","eventDescribe":"运行异常告警#0","faultName":"","appPush":"","warningEventId":"4ce13e2f-0b68-4a67-8314-02fa26849196","deviceNameD":"","liveDescribe":"","datedifferent":"6天:8小时","response":"","eventDetail":"","handleId":""},{"markReport":"","counts":"","warningLevel":"0","handName":"","eventResultDetail":"","deviceName":"智能楼宇-空调","devicetypeId":"","surveyTime":"","warningCategoryId":"c65e7423-1c5a-483a-a1b0-8e79ba668de2","applyTime":"2016-06-30 02:36:02","eventDeviceId":"41ffd7b4-ec9d-4a17-adef-4817feaca854","eventFromSystem":"1","dictValue":"","warningType":"1003185","months":"","devicePositionDescribe":"","centralizedProcessIden":"","updateOrDetail":"","handle":"","eventType":"","buildingName":"生产大楼一层101室","responseOfficerId":"","lists":"null","roleName":"","dictName":"","handleLength":"","staffList":"null","eventProcessStatus":"1","eventTime":"2016-06-30 02:36:02","faultType":"","personType":"","handleOpinion":"","handleTime":"","responseTime":"","applierId":"","eventProgress":"","personTotal":"","eventResultTime":"","eventPhoto":"","eventDescribe":"运行异常告警#0","faultName":"","appPush":"","warningEventId":"bd816949-919b-4d07-97e3-658245575ece","deviceNameD":"","liveDescribe":"","datedifferent":"6天:8小时","response":"","eventDetail":"","handleId":""},{"markReport":"","counts":"","warningLevel":"0","handName":"","eventResultDetail":"","deviceName":"智能楼宇-空调","devicetypeId":"","surveyTime":"","warningCategoryId":"c65e7423-1c5a-483a-a1b0-8e79ba668de2","applyTime":"2016-06-30 02:35:47","eventDeviceId":"41ffd7b4-ec9d-4a17-adef-4817feaca854","eventFromSystem":"1","dictValue":"","warningType":"1003185","months":"","devicePositionDescribe":"","centralizedProcessIden":"","updateOrDetail":"","handle":"","eventType":"","buildingName":"生产大楼一层101室","responseOfficerId":"","lists":"null","roleName":"","dictName":"","handleLength":"","staffList":"null","eventProcessStatus":"1","eventTime":"2016-06-30 02:35:47","faultType":"","personType":"","handleOpinion":"","handleTime":"","responseTime":"","applierId":"","eventProgress":"","personTotal":"","eventResultTime":"","eventPhoto":"","eventDescribe":"运行异常告警#0","faultName":"","appPush":"","warningEventId":"1afbc0d8-6276-4738-bf18-ed692f3fbf2d","deviceNameD":"","liveDescribe":"","datedifferent":"6天:8小时","response":"","eventDetail":"","handleId":""}],"object":{"prePage":0,"nextPage":0,"totalPage":52,"pageSize":10,"currentPage":1,"totalCount":511}}